5	ic	Budvar
47	pf	Albert
86	pf	Dalibor
88	pf	Verčou
124	nc	450
125	oe	g
136	pf	Vojtu
156	ps	Cau
179	ic	Zdar
182	if	Olmu
218,219	P	Jan Mayer
218	pf	Jan
219	ps	Mayer
223,224,225	at	776 464 470
226	oe	mail
228	me	necocar@volny.cz
230	gs	Bezručova
231	ah	30
233	gu	Malenovice
235,236	az	76001 02
237	gu	Brno
268	ps	Cau
323	nc	6
334	n_	8
383	n_	900511
385	ty	1234
396	n_	OP
